1. Preprocess - ECO제주 전처리파일
…
전국 코로나 일별 확진자

제주 코로나 일별 확진자

코로나 전후 변수

이 세가지 변수를 추가합니다.

covid = fread('data/covid.csv')

covid = daily_date_time %>% as.data.frame() %>% left_join(covid, by = c('.' = 'stdDay')) %>% rename(yyyymm = '.')
# 중복 데이터 발견 후 처리
covid %>% group_by(yyyymm) %>% summarize(n_n = n()) %>% arrange(desc(n_n))

## # A tibble: 1,277 x 2
##    yyyymm       n_n
##    <date>     <int>
##  1 2020-04-11     2
##  2 2020-09-23     2
##  3 2020-12-08     2
##  4 2021-04-29     2
##  5 2018-01-01     1
##  6 2018-01-02     1
##  7 2018-01-03     1
##  8 2018-01-04     1
##  9 2018-01-05     1
## 10 2018-01-06     1
## # ... with 1,267 more rows
…
